% $ biblatex auxiliary file $
% $ biblatex bbl format version 2.8 $
% Do not modify the above lines!
%
% This is an auxiliary file used by the 'biblatex' package.
% This file may safely be deleted. It will be recreated by
% biber as required.
%
\begingroup
\makeatletter
\@ifundefined{ver@biblatex.sty}
  {\@latex@error
     {Missing 'biblatex' package}
     {The bibliography requires the 'biblatex' package.}
      \aftergroup\endinput}
  {}
\endgroup


\refsection{0}
  \sortlist[entry]{none/global/}
    \entry{HL}{book}{}
      \name{author}{5}{}{%
        {{hash=510fecb2adb16e68b336103cca99c7d4}{%
           family={Apollinari},
           familyi={A\bibinitperiod},
           given={G},
           giveni={G\bibinitperiod}}}%
        {{hash=a37311594cc925256bdf05c3a25faa34}{%
           family={Bejar\bibnamedelima Alonso},
           familyi={B\bibinitperiod\bibinitdelim A\bibinitperiod},
           given={I},
           giveni={I\bibinitperiod}}}%
        {{hash=9177d7cc9cf7a6fdc8bd481ebeea20b3}{%
           family={Br\"{u}ning},
           familyi={B\bibinitperiod},
           given={O},
           giveni={O\bibinitperiod}}}%
        {{hash=5076605a05553e4f523eff037338a6b6}{%
           family={Lamont},
           familyi={L\bibinitperiod},
           given={M},
           giveni={M\bibinitperiod}}}%
        {{hash=717f1104d4d4714ce026dd581df1ca4c}{%
           family={Rossi},
           familyi={R\bibinitperiod},
           given={L},
           giveni={L\bibinitperiod}}}%
      }
      \list{location}{1}{%
        {Geneva}%
      }
      \list{publisher}{1}{%
        {CERN}%
      }
      \strng{namehash}{e25ea653ae66b7f98ec5e7ef9dd55619}
      \strng{fullhash}{208729f66b55ea3bc1e41adedf2ba745}
      \strng{authornamehash}{e25ea653ae66b7f98ec5e7ef9dd55619}
      \strng{authorfullhash}{208729f66b55ea3bc1e41adedf2ba745}
      \field{sortinit}{1}
      \field{sortinithash}{27a2bc5dfb9ed0a0422134d636544b5d}
      \field{labelnamesource}{author}
      \field{labeltitlesource}{title}
      \field{title}{{High-Luminosity Large Hadron Collider (HL-LHC): Preliminary Design Report}}
      \field{year}{2015}
      \verb{url}
      \verb https://cds.cern.ch/record/2116337
      \endverb
    \endentry
    \entry{RD53}{report}{}
      \name{author}{1}{}{%
        {{hash=a679ca4fcf832668e2febe8dcd576cbf}{%
           family={Garcia-Sciveres},
           familyi={G\bibinithyphendelim S\bibinitperiod},
           given={Mauricio},
           giveni={M\bibinitperiod}}}%
      }
      \list{institution}{1}{%
        {CERN}%
      }
      \list{location}{1}{%
        {Geneva}%
      }
      \strng{namehash}{a679ca4fcf832668e2febe8dcd576cbf}
      \strng{fullhash}{a679ca4fcf832668e2febe8dcd576cbf}
      \strng{authornamehash}{a679ca4fcf832668e2febe8dcd576cbf}
      \strng{authorfullhash}{a679ca4fcf832668e2febe8dcd576cbf}
      \field{sortinit}{2}
      \field{sortinithash}{0aa614ace9f3a40ef5a67e7f7a184048}
      \field{labelnamesource}{author}
      \field{labeltitlesource}{title}
      \field{month}{12}
      \field{number}{CERN-RD53-PUB-15-001}
      \field{title}{{RD53A Integrated Circuit Specifications}}
      \field{type}{techreport}
      \field{year}{2015}
      \verb{url}
      \verb https://cds.cern.ch/record/2113263
      \endverb
    \endentry
    \entry{fe65_doc}{report}{}
      \field{sortinit}{3}
      \field{sortinithash}{197da6d6c34c6b20ce45c4d4baace5a4}
      \field{type}{techreport}
      \verb{url}
      \verb https://gitlab.cern.ch/fe65-p2/doc/tree/master
      \endverb
    \endentry
    \entry{MIOGPAC}{report}{}
      \field{sortinit}{6}
      \field{sortinithash}{02bbed3ed82f61ae046619460488516d}
      \field{type}{techreport}
      \verb{url}
      \verb http://basil.readthedocs.io/en/latest/hardware.html
      \endverb
    \endentry
    \entry{KIT}{article}{}
      \name{author}{8}{}{%
        {{hash=72c97e8efcf8b911d3470a7c296c614a}{%
           family={Guthoff},
           familyi={G\bibinitperiod},
           given={M.},
           giveni={M\bibinitperiod}}}%
        {{hash=0e851a2f76252b4e04cddad60010f701}{%
           family={Brovchenko},
           familyi={B\bibinitperiod},
           given={O.},
           giveni={O\bibinitperiod}}}%
        {{hash=93f24daed6edc9e8077c98342221186f}{%
           family={Boer},
           familyi={B\bibinitperiod},
           given={W.},
           giveni={W\bibinitperiod},
           prefix={de},
           prefixi={d\bibinitperiod}}}%
        {{hash=3b7b37d72dc0fe3d82624302b951d6bc}{%
           family={Dierlamm},
           familyi={D\bibinitperiod},
           given={A.},
           giveni={A\bibinitperiod}}}%
        {{hash=9983bf8505894af6e2614e822cc63ef7}{%
           family={Mueller},
           familyi={M\bibinitperiod},
           given={T.},
           giveni={T\bibinitperiod}}}%
        {{hash=280dd634012fb78b65dde63a5b035b98}{%
           family={Ritter},
           familyi={R\bibinitperiod},
           given={A.},
           giveni={A\bibinitperiod}}}%
        {{hash=bf91ecc48e144eb7a2f9431f93f1c887}{%
           family={Schmanau},
           familyi={S\bibinitperiod},
           given={M.},
           giveni={M\bibinitperiod}}}%
        {{hash=1693c19457489336d76ceb70d1a5a190}{%
           family={Simonis},
           familyi={S\bibinitperiod},
           given={H.-J.},
           giveni={H\bibinithyphendelim J\bibinitperiod}}}%
      }
      \strng{namehash}{a6f1d937ae350fa0f527a2e0d80887b0}
      \strng{fullhash}{b9f403a8b8d311f97ac24cf99afe9b86}
      \strng{authornamehash}{a6f1d937ae350fa0f527a2e0d80887b0}
      \strng{authorfullhash}{b9f403a8b8d311f97ac24cf99afe9b86}
      \field{sortinit}{8}
      \field{sortinithash}{2f1b0e69e7617f99664f1cd00bb9603c}
      \field{labelnamesource}{author}
      \field{labeltitlesource}{title}
      \field{journaltitle}{Nuclear Instruments and Methods in Physics Research Section A: Accelerators, Spectrometers, Detectors and Associated Equipment}
      \field{title}{Geant4 simulation of a filtered X-ray source for radiation damage studies}
      \field{volume}{675}
      \field{year}{2012}
      \field{pages}{118\bibrangedash 122}
      \range{pages}{5}
      \verb{doi}
      \verb http://dx.doi.org/10.1016/j.nima.2012.01.029
      \endverb
    \endentry
  \endsortlist
\endrefsection
\endinput

