[0] Config.pm:354> INFO - This is Biber 2.7
[0] Config.pm:357> INFO - Logfile is 'fe65_irrad.blg'
[38] biber-darwin:303> INFO - === Tue Feb 28, 2017, 11:35:11
[57] Biber.pm:359> INFO - Reading 'fe65_irrad.bcf'
[138] Biber.pm:832> INFO - Using all citekeys in bib section 0
[150] Biber.pm:3670> INFO - Processing section 0
[163] Biber.pm:3840> INFO - Looking for bibtex format file 'fe65_irrad.bib' for section 0
[165] bibtex.pm:1435> INFO - Decoding LaTeX character macros into UTF-8
[169] bibtex.pm:1292> INFO - Found BibTeX data source 'fe65_irrad.bib'
[175] Utils.pm:164> WARN - month field 'Dec' in entry 'RD53' is not an integer - this will probably not sort properly.
[193] UCollate.pm:68> INFO - Overriding locale 'en-US' defaults 'normalization = NFD' with 'normalization = prenormalized'
[193] UCollate.pm:68> INFO - Overriding locale 'en-US' defaults 'variable = shifted' with 'variable = non-ignorable'
[193] Biber.pm:3499> INFO - Sorting list 'none/global/' of type 'entry' with scheme 'none' and locale 'en-US'
[193] Biber.pm:3505> INFO - No sort tailoring available for locale 'en-US'
[197] bbl.pm:608> INFO - Writing 'fe65_irrad.bbl' with encoding 'ascii'
[199] Utils.pm:164> WARN - The entry 'HL' has characters which cannot be encoded in 'ascii'. Recoding problematic characters into macros.
[200] bbl.pm:712> INFO - Output to fe65_irrad.bbl
[200] Biber.pm:109> INFO - WARNINGS: 2
