\relax 
\providecommand*\new@tpo@label[2]{}
\abx@aux@sortscheme{none}
\abx@aux@refcontext{none/global/}
\abx@aux@cite{HL}
\abx@aux@segm{0}{0}{HL}
\abx@aux@cite{RD53}
\abx@aux@segm{0}{0}{RD53}
\abx@aux@cite{fe65_doc}
\abx@aux@segm{0}{0}{fe65_doc}
\@writefile{toc}{\boolfalse {citerequest}\boolfalse {citetracker}\boolfalse {pagetracker}\boolfalse {backtracker}\relax }
\@writefile{lof}{\boolfalse {citerequest}\boolfalse {citetracker}\boolfalse {pagetracker}\boolfalse {backtracker}\relax }
\@writefile{lot}{\boolfalse {citerequest}\boolfalse {citetracker}\boolfalse {pagetracker}\boolfalse {backtracker}\relax }
\select@language{english}
\@writefile{toc}{\defcounter {refsection}{0}\relax }\@writefile{toc}{\select@language{english}}
\@writefile{lof}{\defcounter {refsection}{0}\relax }\@writefile{lof}{\select@language{english}}
\@writefile{lot}{\defcounter {refsection}{0}\relax }\@writefile{lot}{\select@language{english}}
\@writefile{toc}{\defcounter {refsection}{0}\relax }\@writefile{toc}{\contentsline {section}{\numberline {1}Introduction}{1}}
\abx@aux@backref{1}{HL}{0}{1}{1}
\abx@aux@backref{2}{RD53}{0}{1}{1}
\abx@aux@backref{3}{fe65_doc}{0}{1}{1}
\abx@aux@segm{0}{0}{RD53}
\abx@aux@segm{0}{0}{RD53}
\providecommand*\caption@xref[2]{\@setref\relax\@undefined{#1}}
\newlabel{tab:rd53tab}{{\caption@xref {tab:rd53tab}{ on input line 66}}{2}}
\newlabel{tab:rd53tab@cref}{{[section][1][]1}{2}}
\@writefile{lot}{\defcounter {refsection}{0}\relax }\@writefile{lot}{\contentsline {table}{\numberline {1}{\ignorespaces RD53 specification for HL-LHC hybrid pixel detectors \cite {RD53}.\relax }}{2}}
\abx@aux@backref{5}{RD53}{0}{2}{2}
\@writefile{toc}{\defcounter {refsection}{0}\relax }\@writefile{toc}{\contentsline {section}{\numberline {2}Chip description}{2}}
\newlabel{sec:descr}{{2}{2}}
\newlabel{sec:descr@cref}{{[section][2][]2}{2}}
\@writefile{lot}{\defcounter {refsection}{0}\relax }\@writefile{lot}{\contentsline {table}{\numberline {2}{\ignorespaces RD53 specification for HL-LHC hybrid pixel detectors.\relax }}{2}}
\newlabel{tab:par}{{2}{2}}
\newlabel{tab:par@cref}{{[table][2][]2}{2}}
\@writefile{lof}{\defcounter {refsection}{0}\relax }\@writefile{lof}{\contentsline {figure}{\numberline {1}{\ignorespaces Pixel analog circuit schematic.\relax }}{3}}
\newlabel{fig:schematic}{{1}{3}}
\newlabel{fig:schematic@cref}{{[figure][1][]1}{3}}
\@writefile{toc}{\defcounter {refsection}{0}\relax }\@writefile{toc}{\contentsline {paragraph}{Different Column Architectures}{3}}
\@writefile{lot}{\defcounter {refsection}{0}\relax }\@writefile{lot}{\contentsline {table}{\numberline {3}{\ignorespaces Column design details\relax }}{3}}
\newlabel{tab:cols}{{3}{3}}
\newlabel{tab:cols@cref}{{[table][3][]3}{3}}
\abx@aux@cite{MIOGPAC}
\abx@aux@segm{0}{0}{MIOGPAC}
\abx@aux@segm{0}{0}{MIOGPAC}
\abx@aux@cite{KIT}
\abx@aux@segm{0}{0}{KIT}
\abx@aux@segm{0}{0}{KIT}
\@writefile{toc}{\defcounter {refsection}{0}\relax }\@writefile{toc}{\contentsline {section}{\numberline {3}Setup}{4}}
\newlabel{sec:setup}{{3}{4}}
\newlabel{sec:setup@cref}{{[section][3][]3}{4}}
\@writefile{toc}{\defcounter {refsection}{0}\relax }\@writefile{toc}{\contentsline {subsection}{\numberline {3.1}Test Setup}{4}}
\newlabel{sec:descr}{{3.1}{4}}
\newlabel{sec:descr@cref}{{[subsection][1][3]3.1}{4}}
\abx@aux@backref{6}{MIOGPAC}{0}{4}{4}
\abx@aux@backref{7}{MIOGPAC}{0}{4}{4}
\@writefile{lof}{\defcounter {refsection}{0}\relax }\@writefile{lof}{\contentsline {figure}{\numberline {2}{\ignorespaces Test setup for the FE65P2. On the left the MIO board with its FPGA, in the middle the GPAC card, on the right the FE65P2 PCB. \relax }}{4}}
\newlabel{fig:pic}{{2}{4}}
\newlabel{fig:pic@cref}{{[figure][2][]2}{4}}
\@writefile{toc}{\defcounter {refsection}{0}\relax }\@writefile{toc}{\contentsline {subsection}{\numberline {3.2}Dose delivery and irradiation setup}{4}}
\newlabel{sec:descr}{{3.2}{4}}
\newlabel{sec:descr@cref}{{[subsection][2][3]3.2}{4}}
\abx@aux@backref{8}{KIT}{0}{4}{4}
\abx@aux@backref{9}{KIT}{0}{4}{4}
\@writefile{lot}{\defcounter {refsection}{0}\relax }\@writefile{lot}{\contentsline {table}{\numberline {4}{\ignorespaces Dose delivery steps\relax }}{5}}
\newlabel{tab:doses}{{4}{5}}
\newlabel{tab:doses@cref}{{[table][4][]4}{5}}
\@writefile{toc}{\defcounter {refsection}{0}\relax }\@writefile{toc}{\contentsline {subsection}{\numberline {3.3}Temperature and power monitoring}{5}}
\newlabel{sec:descr}{{3.3}{5}}
\newlabel{sec:descr@cref}{{[subsection][3][3]3.3}{5}}
\@writefile{lof}{\defcounter {refsection}{0}\relax }\@writefile{lof}{\contentsline {figure}{\numberline {3}{\ignorespaces Temperature measure by the NTC during the whole irradiation campaign.\relax }}{6}}
\newlabel{fig:temp}{{3}{6}}
\newlabel{fig:temp@cref}{{[figure][3][]3}{6}}
\@writefile{lof}{\defcounter {refsection}{0}\relax }\@writefile{lof}{\contentsline {figure}{\numberline {4}{\ignorespaces Current consumption as measured before the threshold scans of column 1.\relax }}{7}}
\newlabel{fig:pow}{{4}{7}}
\newlabel{fig:pow@cref}{{[figure][4][]4}{7}}
\@writefile{toc}{\defcounter {refsection}{0}\relax }\@writefile{toc}{\contentsline {section}{\numberline {4}Measurements}{8}}
\newlabel{sec:meas}{{4}{8}}
\newlabel{sec:meas@cref}{{[section][4][]4}{8}}
\@writefile{toc}{\defcounter {refsection}{0}\relax }\@writefile{toc}{\contentsline {subsection}{\numberline {4.1}Digital scan}{8}}
\newlabel{sec:digi_sc}{{4.1}{8}}
\newlabel{sec:digi_sc@cref}{{[subsection][1][4]4.1}{8}}
\@writefile{lof}{\defcounter {refsection}{0}\relax }\@writefile{lof}{\contentsline {figure}{\numberline {5}{\ignorespaces Shmoo plots for the DATA clock \textbf  {(a)} ad for the CMD clock \textbf  {(b)} before irradiation. \relax }}{8}}
\newlabel{fig:ref_data}{{5}{8}}
\newlabel{fig:ref_data@cref}{{[figure][5][]5}{8}}
\@writefile{lof}{\defcounter {refsection}{0}\relax }\@writefile{lof}{\contentsline {subfigure}{\numberline{(a)}{\ignorespaces {DATA clk. reference}}}{8}}
\@writefile{lof}{\defcounter {refsection}{0}\relax }\@writefile{lof}{\contentsline {subfigure}{\numberline{(b)}{\ignorespaces {CMD clk. reference}}}{8}}
\@writefile{lof}{\defcounter {refsection}{0}\relax }\@writefile{lof}{\contentsline {figure}{\numberline {6}{\ignorespaces Shmoo plots for DATA \textbf  {(a)} and CMD clock \textbf  {(b)} after 500 Mrads, increased injection delay and trigger multiplicity\relax }}{9}}
\newlabel{fig:reborn}{{6}{9}}
\newlabel{fig:reborn@cref}{{[figure][6][]6}{9}}
\@writefile{lof}{\defcounter {refsection}{0}\relax }\@writefile{lof}{\contentsline {subfigure}{\numberline{(a)}{\ignorespaces {}}}{9}}
\@writefile{lof}{\defcounter {refsection}{0}\relax }\@writefile{lof}{\contentsline {subfigure}{\numberline{(b)}{\ignorespaces {}}}{9}}
\@writefile{toc}{\defcounter {refsection}{0}\relax }\@writefile{toc}{\contentsline {subsection}{\numberline {4.2}Pixel Registers scan}{10}}
\newlabel{sec:proofread_sc}{{4.2}{10}}
\newlabel{sec:proofread_sc@cref}{{[subsection][2][4]4.2}{10}}
\@writefile{lof}{\defcounter {refsection}{0}\relax }\@writefile{lof}{\contentsline {figure}{\numberline {7}{\ignorespaces Pixel and global registers soft errors before irradiation\relax }}{10}}
\newlabel{fig:untuned_th}{{7}{10}}
\newlabel{fig:untuned_th@cref}{{[figure][7][]7}{10}}
\@writefile{lof}{\defcounter {refsection}{0}\relax }\@writefile{lof}{\contentsline {subfigure}{\numberline{(a)}{\ignorespaces {}}}{10}}
\@writefile{lof}{\defcounter {refsection}{0}\relax }\@writefile{lof}{\contentsline {subfigure}{\numberline{(b)}{\ignorespaces {}}}{10}}
\@writefile{lof}{\defcounter {refsection}{0}\relax }\@writefile{lof}{\contentsline {figure}{\numberline {8}{\ignorespaces Pixel and global registers soft errors at 500Mrad\relax }}{10}}
\newlabel{fig:untuned_ns}{{8}{10}}
\newlabel{fig:untuned_ns@cref}{{[figure][8][]8}{10}}
\@writefile{lof}{\defcounter {refsection}{0}\relax }\@writefile{lof}{\contentsline {subfigure}{\numberline{(a)}{\ignorespaces {}}}{10}}
\@writefile{lof}{\defcounter {refsection}{0}\relax }\@writefile{lof}{\contentsline {subfigure}{\numberline{(b)}{\ignorespaces {}}}{10}}
\@writefile{toc}{\defcounter {refsection}{0}\relax }\@writefile{toc}{\contentsline {subsection}{\numberline {4.3}Threshold scan}{11}}
\newlabel{sec:thrs_sc}{{4.3}{11}}
\newlabel{sec:thrs_sc@cref}{{[subsection][3][4]4.3}{11}}
\newlabel{fig:fit}{{\caption@xref {fig:fit}{ on input line 264}}{11}}
\newlabel{fig:fit@cref}{{[subsection][3][4]4.3}{11}}
\@writefile{lof}{\defcounter {refsection}{0}\relax }\@writefile{lof}{\contentsline {figure}{\numberline {9}{\ignorespaces Untuned threshold and its dispersion as a function of the dose\relax }}{12}}
\newlabel{fig:untuned_th}{{9}{12}}
\newlabel{fig:untuned_th@cref}{{[figure][9][]9}{12}}
\@writefile{lof}{\defcounter {refsection}{0}\relax }\@writefile{lof}{\contentsline {subfigure}{\numberline{(a)}{\ignorespaces {}}}{12}}
\@writefile{lof}{\defcounter {refsection}{0}\relax }\@writefile{lof}{\contentsline {subfigure}{\numberline{(b)}{\ignorespaces {}}}{12}}
\@writefile{lof}{\defcounter {refsection}{0}\relax }\@writefile{lof}{\contentsline {figure}{\numberline {10}{\ignorespaces Untuned noise and its dispersion as a function of the dose\relax }}{12}}
\newlabel{fig:untuned_ns}{{10}{12}}
\newlabel{fig:untuned_ns@cref}{{[figure][10][]10}{12}}
\@writefile{lof}{\defcounter {refsection}{0}\relax }\@writefile{lof}{\contentsline {subfigure}{\numberline{(a)}{\ignorespaces {}}}{12}}
\@writefile{lof}{\defcounter {refsection}{0}\relax }\@writefile{lof}{\contentsline {subfigure}{\numberline{(b)}{\ignorespaces {}}}{12}}
\@writefile{toc}{\defcounter {refsection}{0}\relax }\@writefile{toc}{\contentsline {subsection}{\numberline {4.4}Noise scan and tuning}{13}}
\newlabel{sec:noise_sc}{{4.4}{13}}
\newlabel{sec:noise_sc@cref}{{[subsection][4][4]4.4}{13}}
\@writefile{lof}{\defcounter {refsection}{0}\relax }\@writefile{lof}{\contentsline {figure}{\numberline {11}{\ignorespaces Tuned threshold and its dispersion as a function of the dose\relax }}{13}}
\newlabel{fig:tuning}{{11}{13}}
\newlabel{fig:tuning@cref}{{[figure][11][]11}{13}}
\@writefile{lof}{\defcounter {refsection}{0}\relax }\@writefile{lof}{\contentsline {subfigure}{\numberline{(a)}{\ignorespaces {}}}{13}}
\@writefile{lof}{\defcounter {refsection}{0}\relax }\@writefile{lof}{\contentsline {subfigure}{\numberline{(b)}{\ignorespaces {}}}{13}}
\@writefile{lof}{\defcounter {refsection}{0}\relax }\@writefile{lof}{\contentsline {figure}{\numberline {12}{\ignorespaces Tuned threshold and its dispersion as a function of the dose\relax }}{14}}
\newlabel{fig:untuned}{{12}{14}}
\newlabel{fig:untuned@cref}{{[figure][12][]12}{14}}
\@writefile{lof}{\defcounter {refsection}{0}\relax }\@writefile{lof}{\contentsline {subfigure}{\numberline{(a)}{\ignorespaces {}}}{14}}
\@writefile{lof}{\defcounter {refsection}{0}\relax }\@writefile{lof}{\contentsline {subfigure}{\numberline{(b)}{\ignorespaces {}}}{14}}
\@writefile{lof}{\defcounter {refsection}{0}\relax }\@writefile{lof}{\contentsline {figure}{\numberline {13}{\ignorespaces Tuned threshold and its dispersion as a function of the dose\relax }}{14}}
\newlabel{fig:untuned}{{13}{14}}
\newlabel{fig:untuned@cref}{{[figure][13][]13}{14}}
\@writefile{lof}{\defcounter {refsection}{0}\relax }\@writefile{lof}{\contentsline {subfigure}{\numberline{(a)}{\ignorespaces {}}}{14}}
\@writefile{lof}{\defcounter {refsection}{0}\relax }\@writefile{lof}{\contentsline {subfigure}{\numberline{(b)}{\ignorespaces {}}}{14}}
\@writefile{lof}{\defcounter {refsection}{0}\relax }\@writefile{lof}{\contentsline {figure}{\numberline {14}{\ignorespaces In \textbf  {(a)} fraction of pixels responding to the untuned threshold scan, in\textbf  {(b)} fraction of pixels used to calculate threshold and noise.\relax }}{15}}
\newlabel{fig:repr}{{14}{15}}
\newlabel{fig:repr@cref}{{[figure][14][]14}{15}}
\@writefile{lof}{\defcounter {refsection}{0}\relax }\@writefile{lof}{\contentsline {subfigure}{\numberline{(a)}{\ignorespaces {}}}{15}}
\@writefile{lof}{\defcounter {refsection}{0}\relax }\@writefile{lof}{\contentsline {subfigure}{\numberline{(b)}{\ignorespaces {}}}{15}}
\@writefile{toc}{\defcounter {refsection}{0}\relax }\@writefile{toc}{\contentsline {subsection}{\numberline {4.5}Timewalk scan}{16}}
\newlabel{sec:tw_scan}{{4.5}{16}}
\newlabel{sec:tw_scan@cref}{{[subsection][5][4]4.5}{16}}
\@writefile{lot}{\defcounter {refsection}{0}\relax }\@writefile{lot}{\contentsline {table}{\numberline {5}{\ignorespaces In-time thresholds \relax }}{16}}
\newlabel{tab:tw}{{5}{16}}
\newlabel{tab:tw@cref}{{[table][5][]5}{16}}
\@writefile{lof}{\defcounter {refsection}{0}\relax }\@writefile{lof}{\contentsline {figure}{\numberline {15}{\ignorespaces Timewalk scan output for col. 4 before irradiation. In Figure \textbf  {(a)} is the delay as a function of the charge injection, in \textbf  {(b)} the recorded ToT as a function of the injecte pulse converted into electron count.\relax }}{17}}
\newlabel{fig:tw4_ref}{{15}{17}}
\newlabel{fig:tw4_ref@cref}{{[figure][15][]15}{17}}
\@writefile{lof}{\defcounter {refsection}{0}\relax }\@writefile{lof}{\contentsline {subfigure}{\numberline{(a)}{\ignorespaces {}}}{17}}
\@writefile{lof}{\defcounter {refsection}{0}\relax }\@writefile{lof}{\contentsline {subfigure}{\numberline{(b)}{\ignorespaces {}}}{17}}
\newlabel{fig:tw4_400}{{\caption@xref {fig:tw4_400}{ on input line 372}}{17}}
\newlabel{fig:tw4_400@cref}{{[subsection][5][4]4.5}{17}}
\@writefile{lof}{\defcounter {refsection}{0}\relax }\@writefile{lof}{\contentsline {figure}{\numberline {16}{\ignorespaces Timewalk scan output for col. 4 at 400 Mrad delivered dose.In Figure \textbf  {(a)} is the delay as a function of the charge injection, in \textbf  {(b)} the recorded ToT as a function of the injecte pulse converted into electron count.\relax }}{17}}
\newlabel{fig:untuned}{{16}{17}}
\newlabel{fig:untuned@cref}{{[figure][16][]16}{17}}
\@writefile{lof}{\defcounter {refsection}{0}\relax }\@writefile{lof}{\contentsline {subfigure}{\numberline{(a)}{\ignorespaces {}}}{17}}
\@writefile{lof}{\defcounter {refsection}{0}\relax }\@writefile{lof}{\contentsline {subfigure}{\numberline{(b)}{\ignorespaces {}}}{17}}
\@writefile{toc}{\defcounter {refsection}{0}\relax }\@writefile{toc}{\contentsline {section}{\numberline {5}Conclusion}{18}}
\newlabel{sec:conclusion}{{5}{18}}
\newlabel{sec:conclusion@cref}{{[section][5][]5}{18}}
\@writefile{toc}{\defcounter {refsection}{0}\relax }\@writefile{toc}{\contentsline {section}{\numberline {A}Appendices}{18}}
\@writefile{toc}{\defcounter {refsection}{0}\relax }\@writefile{toc}{\contentsline {subsection}{\numberline {A.1}Tuned Threshold dispersion}{18}}
\newlabel{app:missing_tu}{{A.1}{18}}
\newlabel{app:missing_tu@cref}{{[subappendix][1][2147483647,1]A.1}{18}}
\@writefile{lof}{\defcounter {refsection}{0}\relax }\@writefile{lof}{\contentsline {figure}{\numberline {17}{\ignorespaces Untuned threshold distribution, column 4, 10 Mrad\relax }}{18}}
\newlabel{fig:unt_repr_app}{{17}{18}}
\newlabel{fig:unt_repr_app@cref}{{[figure][17][2147483647]17}{18}}
\@writefile{toc}{\defcounter {refsection}{0}\relax }\@writefile{toc}{\contentsline {subsection}{\numberline {A.2}Digital Scan - DATA clock Digital Shmoo}{19}}
\newlabel{app:shmoo}{{A.2}{19}}
\newlabel{app:shmoo@cref}{{[subappendix][2][2147483647,1]A.2}{19}}
\@writefile{lof}{\defcounter {refsection}{0}\relax }\@writefile{lof}{\contentsline {figure}{\numberline {18}{\ignorespaces Shmoo plots for the DATA clock during performance transition \textbf  {(a)} and 100 Mrads in \textbf  {(b)}\relax }}{19}}
\newlabel{fig:irr_data1}{{18}{19}}
\newlabel{fig:irr_data1@cref}{{[figure][18][2147483647]18}{19}}
\@writefile{lof}{\defcounter {refsection}{0}\relax }\@writefile{lof}{\contentsline {subfigure}{\numberline{(a)}{\ignorespaces {Transition}}}{19}}
\@writefile{lof}{\defcounter {refsection}{0}\relax }\@writefile{lof}{\contentsline {subfigure}{\numberline{(b)}{\ignorespaces {100 Mrad}}}{19}}
\@writefile{lof}{\defcounter {refsection}{0}\relax }\@writefile{lof}{\contentsline {figure}{\numberline {19}{\ignorespaces Shmoo plots for the DATA clock during performance transition \textbf  {(a)} and 100 Mrads in \textbf  {(b)}\relax }}{20}}
\newlabel{fig:irr_data2}{{19}{20}}
\newlabel{fig:irr_data2@cref}{{[figure][19][2147483647]19}{20}}
\@writefile{lof}{\defcounter {refsection}{0}\relax }\@writefile{lof}{\contentsline {subfigure}{\numberline{(a)}{\ignorespaces {Transition}}}{20}}
\@writefile{lof}{\defcounter {refsection}{0}\relax }\@writefile{lof}{\contentsline {subfigure}{\numberline{(b)}{\ignorespaces {100 Mrad}}}{20}}
\@writefile{lof}{\defcounter {refsection}{0}\relax }\@writefile{lof}{\contentsline {figure}{\numberline {20}{\ignorespaces Occupation plots. Figure \textbf  {(a)} refers to 160 MHz and 1.25V and Figure \textbf  {(b)} to 120 MHz, 1.2V \relax }}{20}}
\newlabel{fig:occ_95}{{20}{20}}
\newlabel{fig:occ_95@cref}{{[figure][20][2147483647]20}{20}}
\@writefile{lof}{\defcounter {refsection}{0}\relax }\@writefile{lof}{\contentsline {subfigure}{\numberline{(a)}{\ignorespaces {}}}{20}}
\@writefile{lof}{\defcounter {refsection}{0}\relax }\@writefile{lof}{\contentsline {subfigure}{\numberline{(b)}{\ignorespaces {}}}{20}}
\@writefile{lof}{\defcounter {refsection}{0}\relax }\@writefile{lof}{\contentsline {figure}{\numberline {21}{\ignorespaces Temperature measure by the NTC during the whole irradiation campaign.\relax }}{21}}
\newlabel{fig:500occ}{{21}{21}}
\newlabel{fig:500occ@cref}{{[figure][21][2147483647]21}{21}}
\@writefile{toc}{\defcounter {refsection}{0}\relax }\@writefile{toc}{\contentsline {subsection}{\numberline {A.3}Digital Scan - CMD clock Digital Shmoo}{22}}
\@writefile{lof}{\defcounter {refsection}{0}\relax }\@writefile{lof}{\contentsline {figure}{\numberline {22}{\ignorespaces Shmoo plots for the CMD clock at 500 krad in \textbf  {(a)} and 10 Mrads in \textbf  {(b)}\relax }}{22}}
\newlabel{fig:irr1_cmd}{{22}{22}}
\newlabel{fig:irr1_cmd@cref}{{[figure][22][2147483647]22}{22}}
\@writefile{lof}{\defcounter {refsection}{0}\relax }\@writefile{lof}{\contentsline {subfigure}{\numberline{(a)}{\ignorespaces {Reference}}}{22}}
\@writefile{lof}{\defcounter {refsection}{0}\relax }\@writefile{lof}{\contentsline {subfigure}{\numberline{(b)}{\ignorespaces {10 Mrad}}}{22}}
\@writefile{lof}{\defcounter {refsection}{0}\relax }\@writefile{lof}{\contentsline {figure}{\numberline {23}{\ignorespaces Shmoo plots for the CMD clock during performance transition \textbf  {(a)} and 100 Mrads in \textbf  {(b)}\relax }}{22}}
\newlabel{fig:irr2_cmd}{{23}{22}}
\newlabel{fig:irr2_cmd@cref}{{[figure][23][2147483647]23}{22}}
\@writefile{lof}{\defcounter {refsection}{0}\relax }\@writefile{lof}{\contentsline {subfigure}{\numberline{(a)}{\ignorespaces {Transition}}}{22}}
\@writefile{lof}{\defcounter {refsection}{0}\relax }\@writefile{lof}{\contentsline {subfigure}{\numberline{(b)}{\ignorespaces {100 Mrad}}}{22}}
\abx@aux@refcontextdefaultsdone
\abx@aux@defaultrefcontext{0}{HL}{none/global/}
\abx@aux@defaultrefcontext{0}{RD53}{none/global/}
\abx@aux@defaultrefcontext{0}{fe65_doc}{none/global/}
\abx@aux@defaultrefcontext{0}{MIOGPAC}{none/global/}
\abx@aux@defaultrefcontext{0}{KIT}{none/global/}
